{
  "project_info": {
    "project_number": "212049239675",
    "firebase_url": "https://circularunal.firebaseio.com",
    "project_id": "circularunal",
    "storage_bucket": "circularunal.appspot.com"
  },
  "client": [
    {
      "client_info": {
        "mobilesdk_app_id": "1:212049239675:android:73c3cb98ef423d69744cde",
        "android_client_info": {
          "package_name": "co.edu.unal.unimedios.circular"
        }
      },
      "oauth_client": [
        {
          "client_id": "212049239675-48mrs3uklse383t5gtec67a802bv9hpj.apps.googleusercontent.com",
          "client_type": 1,
          "android_info": {
            "package_name": "co.edu.unal.unimedios.circular",
            "certificate_hash": "5df7cdb9622df988e1d9c255f9baed12775f54d8"
          }
        },
        {
          "client_id": "212049239675-7pgovo4pjnln8uhbkljelsee05blkag3.apps.googleusercontent.com",
          "client_type": 3
        }
      ],
      "api_key": [
        {
          "current_key": "AIzaSyA7zi6zwTbzirUQxWSVXavaXEqbi6vWr8c"
        }
      ],
      "services": {
        "appinvite_service": {
          "other_platform_oauth_client": [
            {
              "client_id": "212049239675-7pgovo4pjnln8uhbkljelsee05blkag3.apps.googleusercontent.com",
              "client_type": 3
            }
          ]
        }
      }
    }
  ],
  "configuration_version": "1"
}